%YAML 1.1
%TAG !u! tag:unity3d.com,2011:
--- !u!114 &11400000
MonoBehaviour:
  m_ObjectHideFlags: 0
  m_CorrespondingSourceObject: {fileID: 0}
  m_PrefabInstance: {fileID: 0}
  m_PrefabAsset: {fileID: 0}
  m_GameObject: {fileID: 0}
  m_Enabled: 1
  m_EditorHideFlags: 0
  m_Script: {fileID: 11500000, guid: e7f4a39f6a74f5c45b4284dba47b4ca5, type: 3}
  m_Name: CardData
  m_EditorClassIdentifier: 
  Cards:
  - CharacterSprite: {fileID: -1225731149, guid: 15089f53dcb3f08408bcc326a9a523fd, type: 3}
    Rarity: 2
    Obtained: 0
    Weight: 10
    Index: 0
  - CharacterSprite: {fileID: 1044515059, guid: 15089f53dcb3f08408bcc326a9a523fd, type: 3}
    Rarity: 1
    Obtained: 0
    Weight: 70
    Index: 1
  - CharacterSprite: {fileID: 2064094419, guid: 15089f53dcb3f08408bcc326a9a523fd, type: 3}
    Rarity: 1
    Obtained: 0
    Weight: 130
    Index: 2
  - CharacterSprite: {fileID: 535760978, guid: 15089f53dcb3f08408bcc326a9a523fd, type: 3}
    Rarity: 1
    Obtained: 1
    Weight: 190
    Index: 3
  - CharacterSprite: {fileID: -1299821128, guid: 15089f53dcb3f08408bcc326a9a523fd, type: 3}
    Rarity: 1
    Obtained: 0
    Weight: 250
    Index: 4
  - CharacterSprite: {fileID: 1148068983, guid: 15089f53dcb3f08408bcc326a9a523fd, type: 3}
    Rarity: 3
    Obtained: 0
    Weight: 15
    Index: 1
  - CharacterSprite: {fileID: 751862461, guid: 15089f53dcb3f08408bcc326a9a523fd, type: 3}
    Rarity: 1
    Obtained: 0
    Weight: 315
    Index: 6
  - CharacterSprite: {fileID: 740260846, guid: 15089f53dcb3f08408bcc326a9a523fd, type: 3}
    Rarity: 0
    Obtained: 0
    Weight: 395
    Index: 7
  - CharacterSprite: {fileID: -1549780063, guid: 15089f53dcb3f08408bcc326a9a523fd, type: 3}
    Rarity: 1
    Obtained: 0
    Weight: 455
    Index: 8
  - CharacterSprite: {fileID: -1118258463, guid: 15089f53dcb3f08408bcc326a9a523fd, type: 3}
    Rarity: 0
    Obtained: 1
    Weight: 535
    Index: 9
  - CharacterSprite: {fileID: 1195732397, guid: 15089f53dcb3f08408bcc326a9a523fd, type: 3}
    Rarity: 2
    Obtained: 0
    Weight: 25
    Index: 2
  - CharacterSprite: {fileID: -1714747187, guid: 15089f53dcb3f08408bcc326a9a523fd, type: 3}
    Rarity: 2
    Obtained: 0
    Weight: 35
    Index: 3
  - CharacterSprite: {fileID: -928226135, guid: 15089f53dcb3f08408bcc326a9a523fd, type: 3}
    Rarity: 2
    Obtained: 0
    Weight: 45
    Index: 4
  - CharacterSprite: {fileID: 1281132236, guid: 15089f53dcb3f08408bcc326a9a523fd, type: 3}
    Rarity: 2
    Obtained: 0
    Weight: 55
    Index: 5
  - CharacterSprite: {fileID: 1530331976, guid: 15089f53dcb3f08408bcc326a9a523fd, type: 3}
    Rarity: 3
    Obtained: 0
    Weight: 60
    Index: 6
