%YAML 1.1
%TAG !u! tag:unity3d.com,2011:
--- !u!1001 &5450263862447175244
PrefabInstance:
  m_ObjectHideFlags: 0
  serializedVersion: 2
  m_Modification:
    m_TransformParent: {fileID: 0}
    m_Modifications:
    - target: {fileID: 7931310166284889140, guid: 30c43ea3de0abae499feab003dc8a0fc, type: 3}
      propertyPath: m_Pivot.x
      value: 0.5
      objectReference: {fileID: 0}
    - target: {fileID: 7931310166284889140, guid: 30c43ea3de0abae499feab003dc8a0fc, type: 3}
      propertyPath: m_Pivot.y
      value: 0.5
      objectReference: {fileID: 0}
    - target: {fileID: 7931310166284889140, guid: 30c43ea3de0abae499feab003dc8a0fc, type: 3}
      propertyPath: m_RootOrder
      value: 0
      objectReference: {fileID: 0}
    - target: {fileID: 7931310166284889140, guid: 30c43ea3de0abae499feab003dc8a0fc, type: 3}
      propertyPath: m_AnchorMax.x
      value: 0.5
      objectReference: {fileID: 0}
    - target: {fileID: 7931310166284889140, guid: 30c43ea3de0abae499feab003dc8a0fc, type: 3}
      propertyPath: m_AnchorMax.y
      value: 0.5
      objectReference: {fileID: 0}
    - target: {fileID: 7931310166284889140, guid: 30c43ea3de0abae499feab003dc8a0fc, type: 3}
      propertyPath: m_AnchorMin.x
      value: 0.5
      objectReference: {fileID: 0}
    - target: {fileID: 7931310166284889140, guid: 30c43ea3de0abae499feab003dc8a0fc, type: 3}
      propertyPath: m_AnchorMin.y
      value: 0.5
      objectReference: {fileID: 0}
    - target: {fileID: 7931310166284889140, guid: 30c43ea3de0abae499feab003dc8a0fc, type: 3}
      propertyPath: m_SizeDelta.x
      value: 0
      objectReference: {fileID: 0}
    - target: {fileID: 7931310166284889140, guid: 30c43ea3de0abae499feab003dc8a0fc, type: 3}
      propertyPath: m_SizeDelta.y
      value: 66
      objectReference: {fileID: 0}
    - target: {fileID: 7931310166284889140, guid: 30c43ea3de0abae499feab003dc8a0fc, type: 3}
      propertyPath: m_LocalPosition.x
      value: 0
      objectReference: {fileID: 0}
    - target: {fileID: 7931310166284889140, guid: 30c43ea3de0abae499feab003dc8a0fc, type: 3}
      propertyPath: m_LocalPosition.y
      value: 0
      objectReference: {fileID: 0}
    - target: {fileID: 7931310166284889140, guid: 30c43ea3de0abae499feab003dc8a0fc, type: 3}
      propertyPath: m_LocalPosition.z
      value: 0
      objectReference: {fileID: 0}
    - target: {fileID: 7931310166284889140, guid: 30c43ea3de0abae499feab003dc8a0fc, type: 3}
      propertyPath: m_LocalRotation.w
      value: 1
      objectReference: {fileID: 0}
    - target: {fileID: 7931310166284889140, guid: 30c43ea3de0abae499feab003dc8a0fc, type: 3}
      propertyPath: m_LocalRotation.x
      value: -0
      objectReference: {fileID: 0}
    - target: {fileID: 7931310166284889140, guid: 30c43ea3de0abae499feab003dc8a0fc, type: 3}
      propertyPath: m_LocalRotation.y
      value: -0
      objectReference: {fileID: 0}
    - target: {fileID: 7931310166284889140, guid: 30c43ea3de0abae499feab003dc8a0fc, type: 3}
      propertyPath: m_LocalRotation.z
      value: -0
      objectReference: {fileID: 0}
    - target: {fileID: 7931310166284889140, guid: 30c43ea3de0abae499feab003dc8a0fc, type: 3}
      propertyPath: m_AnchoredPosition.x
      value: 0
      objectReference: {fileID: 0}
    - target: {fileID: 7931310166284889140, guid: 30c43ea3de0abae499feab003dc8a0fc, type: 3}
      propertyPath: m_AnchoredPosition.y
      value: 0
      objectReference: {fileID: 0}
    - target: {fileID: 7931310166284889140, guid: 30c43ea3de0abae499feab003dc8a0fc, type: 3}
      propertyPath: m_LocalEulerAnglesHint.x
      value: 0
      objectReference: {fileID: 0}
    - target: {fileID: 7931310166284889140, guid: 30c43ea3de0abae499feab003dc8a0fc, type: 3}
      propertyPath: m_LocalEulerAnglesHint.y
      value: 0
      objectReference: {fileID: 0}
    - target: {fileID: 7931310166284889140, guid: 30c43ea3de0abae499feab003dc8a0fc, type: 3}
      propertyPath: m_LocalEulerAnglesHint.z
      value: 0
      objectReference: {fileID: 0}
    - target: {fileID: 7931310166284889143, guid: 30c43ea3de0abae499feab003dc8a0fc, type: 3}
      propertyPath: m_Name
      value: CoinTagSection
      objectReference: {fileID: 0}
    - target: {fileID: 7931310166284889143, guid: 30c43ea3de0abae499feab003dc8a0fc, type: 3}
      propertyPath: m_IsActive
      value: 1
      objectReference: {fileID: 0}
    - target: {fileID: 7931310166417907848, guid: 30c43ea3de0abae499feab003dc8a0fc, type: 3}
      propertyPath: m_SizeDelta.x
      value: 60
      objectReference: {fileID: 0}
    - target: {fileID: 7931310166417907848, guid: 30c43ea3de0abae499feab003dc8a0fc, type: 3}
      propertyPath: m_SizeDelta.y
      value: 30
      objectReference: {fileID: 0}
    - target: {fileID: 7931310166417907848, guid: 30c43ea3de0abae499feab003dc8a0fc, type: 3}
      propertyPath: m_AnchoredPosition.x
      value: 0
      objectReference: {fileID: 0}
    - target: {fileID: 7931310166417907849, guid: 30c43ea3de0abae499feab003dc8a0fc, type: 3}
      propertyPath: m_text
      value: 999
      objectReference: {fileID: 0}
    - target: {fileID: 7931310166417907849, guid: 30c43ea3de0abae499feab003dc8a0fc, type: 3}
      propertyPath: m_fontSize
      value: 22
      objectReference: {fileID: 0}
    - target: {fileID: 7931310166417907849, guid: 30c43ea3de0abae499feab003dc8a0fc, type: 3}
      propertyPath: m_fontSizeBase
      value: 22
      objectReference: {fileID: 0}
    - target: {fileID: 7931310166417907849, guid: 30c43ea3de0abae499feab003dc8a0fc, type: 3}
      propertyPath: m_VerticalAlignment
      value: 512
      objectReference: {fileID: 0}
    - target: {fileID: 7931310166417907849, guid: 30c43ea3de0abae499feab003dc8a0fc, type: 3}
      propertyPath: m_HorizontalAlignment
      value: 2
      objectReference: {fileID: 0}
    - target: {fileID: 7931310167746178779, guid: 30c43ea3de0abae499feab003dc8a0fc, type: 3}
      propertyPath: m_SizeDelta.x
      value: 30
      objectReference: {fileID: 0}
    - target: {fileID: 7931310167746178779, guid: 30c43ea3de0abae499feab003dc8a0fc, type: 3}
      propertyPath: m_SizeDelta.y
      value: 30
      objectReference: {fileID: 0}
    m_RemovedComponents: []
  m_SourcePrefab: {fileID: 100100000, guid: 30c43ea3de0abae499feab003dc8a0fc, type: 3}
