%YAML 1.1
%TAG !u! tag:unity3d.com,2011:
--- !u!1001 &6254031114397383475
PrefabInstance:
  m_ObjectHideFlags: 0
  serializedVersion: 2
  m_Modification:
    m_TransformParent: {fileID: 0}
    m_Modifications:
    - target: {fileID: 864910528831875505, guid: d236d0a0d1214004eb3543ac243e12fd, type: 3}
      propertyPath: m_Pivot.x
      value: 0.5
      objectReference: {fileID: 0}
    - target: {fileID: 864910528831875505, guid: d236d0a0d1214004eb3543ac243e12fd, type: 3}
      propertyPath: m_Pivot.y
      value: 0.5
      objectReference: {fileID: 0}
    - target: {fileID: 864910528831875505, guid: d236d0a0d1214004eb3543ac243e12fd, type: 3}
      propertyPath: m_RootOrder
      value: 0
      objectReference: {fileID: 0}
    - target: {fileID: 864910528831875505, guid: d236d0a0d1214004eb3543ac243e12fd, type: 3}
      propertyPath: m_AnchorMax.x
      value: 1
      objectReference: {fileID: 0}
    - target: {fileID: 864910528831875505, guid: d236d0a0d1214004eb3543ac243e12fd, type: 3}
      propertyPath: m_AnchorMax.y
      value: 1
      objectReference: {fileID: 0}
    - target: {fileID: 864910528831875505, guid: d236d0a0d1214004eb3543ac243e12fd, type: 3}
      propertyPath: m_AnchorMin.x
      value: 0
      objectReference: {fileID: 0}
    - target: {fileID: 864910528831875505, guid: d236d0a0d1214004eb3543ac243e12fd, type: 3}
      propertyPath: m_AnchorMin.y
      value: 0
      objectReference: {fileID: 0}
    - target: {fileID: 864910528831875505, guid: d236d0a0d1214004eb3543ac243e12fd, type: 3}
      propertyPath: m_SizeDelta.x
      value: 0
      objectReference: {fileID: 0}
    - target: {fileID: 864910528831875505, guid: d236d0a0d1214004eb3543ac243e12fd, type: 3}
      propertyPath: m_SizeDelta.y
      value: 0
      objectReference: {fileID: 0}
    - target: {fileID: 864910528831875505, guid: d236d0a0d1214004eb3543ac243e12fd, type: 3}
      propertyPath: m_LocalPosition.x
      value: 0
      objectReference: {fileID: 0}
    - target: {fileID: 864910528831875505, guid: d236d0a0d1214004eb3543ac243e12fd, type: 3}
      propertyPath: m_LocalPosition.y
      value: 0
      objectReference: {fileID: 0}
    - target: {fileID: 864910528831875505, guid: d236d0a0d1214004eb3543ac243e12fd, type: 3}
      propertyPath: m_LocalPosition.z
      value: 0
      objectReference: {fileID: 0}
    - target: {fileID: 864910528831875505, guid: d236d0a0d1214004eb3543ac243e12fd, type: 3}
      propertyPath: m_LocalRotation.w
      value: 1
      objectReference: {fileID: 0}
    - target: {fileID: 864910528831875505, guid: d236d0a0d1214004eb3543ac243e12fd, type: 3}
      propertyPath: m_LocalRotation.x
      value: -0
      objectReference: {fileID: 0}
    - target: {fileID: 864910528831875505, guid: d236d0a0d1214004eb3543ac243e12fd, type: 3}
      propertyPath: m_LocalRotation.y
      value: -0
      objectReference: {fileID: 0}
    - target: {fileID: 864910528831875505, guid: d236d0a0d1214004eb3543ac243e12fd, type: 3}
      propertyPath: m_LocalRotation.z
      value: -0
      objectReference: {fileID: 0}
    - target: {fileID: 864910528831875505, guid: d236d0a0d1214004eb3543ac243e12fd, type: 3}
      propertyPath: m_AnchoredPosition.x
      value: 0
      objectReference: {fileID: 0}
    - target: {fileID: 864910528831875505, guid: d236d0a0d1214004eb3543ac243e12fd, type: 3}
      propertyPath: m_AnchoredPosition.y
      value: 0
      objectReference: {fileID: 0}
    - target: {fileID: 864910528831875505, guid: d236d0a0d1214004eb3543ac243e12fd, type: 3}
      propertyPath: m_LocalEulerAnglesHint.x
      value: 0
      objectReference: {fileID: 0}
    - target: {fileID: 864910528831875505, guid: d236d0a0d1214004eb3543ac243e12fd, type: 3}
      propertyPath: m_LocalEulerAnglesHint.y
      value: 0
      objectReference: {fileID: 0}
    - target: {fileID: 864910528831875505, guid: d236d0a0d1214004eb3543ac243e12fd, type: 3}
      propertyPath: m_LocalEulerAnglesHint.z
      value: 0
      objectReference: {fileID: 0}
    - target: {fileID: 864910528831875506, guid: d236d0a0d1214004eb3543ac243e12fd, type: 3}
      propertyPath: m_Name
      value: DiamondTagSection
      objectReference: {fileID: 0}
    - target: {fileID: 864910528831875506, guid: d236d0a0d1214004eb3543ac243e12fd, type: 3}
      propertyPath: m_IsActive
      value: 1
      objectReference: {fileID: 0}
    - target: {fileID: 864910530241715369, guid: d236d0a0d1214004eb3543ac243e12fd, type: 3}
      propertyPath: m_Pivot.x
      value: 1
      objectReference: {fileID: 0}
    - target: {fileID: 864910530241715369, guid: d236d0a0d1214004eb3543ac243e12fd, type: 3}
      propertyPath: m_AnchorMax.x
      value: 0.5
      objectReference: {fileID: 0}
    - target: {fileID: 864910530241715369, guid: d236d0a0d1214004eb3543ac243e12fd, type: 3}
      propertyPath: m_AnchorMin.x
      value: 0.5
      objectReference: {fileID: 0}
    - target: {fileID: 864910530241715369, guid: d236d0a0d1214004eb3543ac243e12fd, type: 3}
      propertyPath: m_SizeDelta.x
      value: 30
      objectReference: {fileID: 0}
    - target: {fileID: 864910530241715369, guid: d236d0a0d1214004eb3543ac243e12fd, type: 3}
      propertyPath: m_SizeDelta.y
      value: 30
      objectReference: {fileID: 0}
    - target: {fileID: 864910530241715369, guid: d236d0a0d1214004eb3543ac243e12fd, type: 3}
      propertyPath: m_AnchoredPosition.x
      value: 0
      objectReference: {fileID: 0}
    - target: {fileID: 864910530363685654, guid: d236d0a0d1214004eb3543ac243e12fd, type: 3}
      propertyPath: m_fontSize
      value: 22
      objectReference: {fileID: 0}
    - target: {fileID: 864910530363685654, guid: d236d0a0d1214004eb3543ac243e12fd, type: 3}
      propertyPath: m_fontSizeBase
      value: 22
      objectReference: {fileID: 0}
    - target: {fileID: 864910530363685655, guid: d236d0a0d1214004eb3543ac243e12fd, type: 3}
      propertyPath: m_SizeDelta.x
      value: 60
      objectReference: {fileID: 0}
    - target: {fileID: 864910530363685655, guid: d236d0a0d1214004eb3543ac243e12fd, type: 3}
      propertyPath: m_SizeDelta.y
      value: 30
      objectReference: {fileID: 0}
    - target: {fileID: 864910530363685655, guid: d236d0a0d1214004eb3543ac243e12fd, type: 3}
      propertyPath: m_AnchoredPosition.x
      value: 0
      objectReference: {fileID: 0}
    m_RemovedComponents: []
  m_SourcePrefab: {fileID: 100100000, guid: d236d0a0d1214004eb3543ac243e12fd, type: 3}
